{
  "name": "DuAppsAdsSdkiOS",
  "version": "1.1.1",
  "summary": "DuApps iOS Ads SDK",
  "description": "DuApps iOS Ads SDK.",
  "homepage": "https://github.com/baiduDuApps/DuAppsAdsSdkiOS",
  "license": "Apache License, Version 2.0",
  "authors": {
    "DuApps": "baiduduapps@gmail.com"
  },
  "source": {
    "git": "https://github.com/baiduDuApps/DuAppsAdsSdkiOS.git",
    "tag": "1.1.1"
  },
  "source_files": [
    "DuAppsAdsSdkiOS-cw1.1.1.1",
    "DuAppsAdsSdkiOS-cw1.1.1.1/**/*.{h,m}"
  ],
  "platforms": {
    "osx": null,
    "ios": null,
    "tvos": null,
    "watchos": null
  }
}
